#VRML V2.0 utf8


Group {
  children 
    Group {
      children 
        Group {
          children 
            Transform {
              translation 0.015 -0.029999999 -0.40600002
              rotation 0 0 1  0
              scale 1 1 1
              scaleOrientation 0 0 1  0
              children 
                Transform {
                  translation -0.015 0.029999999 0.40599999
                  rotation 0 0 1  0
                  scale 1 1 1
                  scaleOrientation 0 0 1  0
                  children [ 
                    Shape {
                      appearance 
                      Appearance {
                        material 
                        Material {

                        }

                      }
                      geometry 
                      IndexedFaceSet {
                        coord 
                        DEF _+0 Coordinate {
                          point [ 0 0 -0.0099999905,
                              0 0 -0.0099999905,
                              0 0 -0.0099999905,
                              0 0 -0.0099999905,
                              0 0 -0.0099999905,
                              0 0 -0.0099999905,
                              0 0 -0.0099999905,
                              0 0 -0.0099999905,
                              0 0 -0.0099999905,
                              0 0 -0.0099999905,
                              0 0 -0.0099999905,
                              0 0 -0.0099999905,
                              0 0 -0.0099999905,
                              0 0 -0.0099999905,
                              0 0 -0.0099999905,
                              0 0 -0.0099999905,
                              0 0 -0.0099999905,
                              0 0 -0.0099999905,
                              0 0 -0.0099999905,
                              0 0 -0.0099999905,
                              0 0 -0.0099999905,
                              0 0 -0.0099999905,
                              0 0 -0.0099999905,
                              0 0 -0.0099999905,
                              0 0 -0.0099999905,
                              0 0 -0.0099999905,
                              0 0 -0.0099999905,
                              0 0 -0.0099999905,
                              0 0 -0.0099999905,
                              0 0 -0.0099999905,
                              0 0 -0.0099999905,
                              0 0 -0.0099999905,
                              -0.001082837 -0.001082837 -0.0098826876,
                              -0.00072606298 -0.001352667 -0.0098826876,
                              -0.00041380501 -0.001484215 -0.0098826876,
                              -0.000181825 -0.001525998 -0.0098826876,
                              0 -0.001531362 -0.0098826876,
                              0.000181825 -0.001525998 -0.0098826876,
                              0.000413806 -0.001484215 -0.0098826876,
                              0.00072606298 -0.001352667 -0.0098826876,
                              0.001082837 -0.001082837 -0.0098826876,
                              0.001352667 -0.00072606298 -0.0098826876,
                              0.001484215 -0.00041380501 -0.0098826876,
                              0.001525998 -0.000181825 -0.0098826876,
                              0.001531362 0 -0.0098826876,
                              0.001525998 0.000181825 -0.0098826876,
                              0.001484215 0.000413806 -0.0098826876,
                              0.001352667 0.00072606298 -0.0098826876,
                              0.001082837 0.001082837 -0.0098826876,
                              0.00072606298 0.001352667 -0.0098826876,
                              0.00041380501 0.001484215 -0.0098826876,
                              0.000181824 0.001525998 -0.0098826876,
                              0 0.001531362 -0.0098826876,
                              -0.000181825 0.001525998 -0.0098826876,
                              -0.000413806 0.001484215 -0.0098826876,
                              -0.00072606298 0.001352667 -0.0098826876,
                              -0.001082837 0.001082837 -0.0098826876,
                              -0.001352667 0.00072606298 -0.0098826876,
                              -0.001484215 0.00041380501 -0.0098826876,
                              -0.001525998 0.000181825 -0.0098826876,
                              -0.001531362 0 -0.0098826876,
                              -0.001525998 -0.000181825 -0.0098826876,
                              -0.001484215 -0.000413806 -0.0098826876,
                              -0.001352667 -0.00072606298 -0.0098826876,
                              -0.002194762 -0.002194762 -0.0095089674,
                              -0.001471638 -0.0027417541 -0.0095089674,
                              -0.00083873502 -0.003008306 -0.0095089674,
                              -0.000368537 -0.003093123 -0.0095089674,
                              0 -0.003103852 -0.0095089674,
                              0.00036853799 -0.003093123 -0.0095089674,
                              0.00083873601 -0.003008306 -0.0095089674,
                              0.001471638 -0.0027417541 -0.0095089674,
                              0.002194762 -0.002194762 -0.0095089674,
                              0.0027417541 -0.001471638 -0.0095089674,
                              0.003008306 -0.00083873502 -0.0095089674,
                              0.003093123 -0.000368537 -0.0095089674,
                              0.003103852 0 -0.0095089674,
                              0.003093123 0.00036853799 -0.0095089674,
                              0.003008306 0.00083873601 -0.0095089674,
                              0.0027417541 0.001471638 -0.0095089674,
                              0.002194762 0.002194762 -0.0095089674,
                              0.001471638 0.0027417541 -0.0095089674,
                              0.00083873502 0.003008306 -0.0095089674,
                              0.000368537 0.003093123 -0.0095089674,
                              0 0.003103852 -0.0095089674,
                              -0.00036853799 0.003093123 -0.0095089674,
                              -0.00083873601 0.003008306 -0.0095089674,
                              -0.001471638 0.0027417541 -0.0095089674,
                              -0.002194762 0.002194762 -0.0095089674,
                              -0.0027417541 0.001471638 -0.0095089674,
                              -0.003008306 0.00083873502 -0.0095089674,
                              -0.003093123 0.000368537 -0.0095089674,
                              -0.003103852 0 -0.0095089674,
                              -0.003093123 -0.00036853799 -0.0095089674,
                              -0.003008306 -0.00083873601 -0.0095089674,
                              -0.0027417541 -0.001471638 -0.0095089674,
                              -0.0032904739 -0.0032904739 -0.008858203,
                              -0.0022063251 -0.0041105151 -0.008858203,
                              -0.001257419 -0.0045101638 -0.008858203,
                              -0.00055252103 -0.0046373 -0.0088582626,
                              0 -0.0046533942 -0.008858203,
                              0.00055252202 -0.0046373 -0.008858203,
                              0.001257419 -0.0045101638 -0.008858203,
                              0.0022063251 -0.0041105151 -0.008858203,
                              0.0032904739 -0.0032904739 -0.008858203,
                              0.0041105151 -0.0022063251 -0.008858203,
                              0.0045101638 -0.001257419 -0.0088582626,
                              0.0046373 -0.00055252103 -0.0088582626,
                              0.0046533942 0 -0.008858203,
                              0.0046373 0.00055252202 -0.008858203,
                              0.0045101638 0.001257419 -0.008858203,
                              0.0041105151 0.0022063251 -0.008858203,
                              0.0032904739 0.0032904739 -0.008858203,
                              0.0022063251 0.0041105151 -0.008858203,
                              0.001257419 0.0045101638 -0.0088582626,
                              0.00055252103 0.0046373 -0.0088582626,
                              0 0.0046533942 -0.008858203,
                              -0.00055252301 0.0046373 -0.008858203,
                              -0.001257419 0.0045101638 -0.008858203,
                              -0.0022063251 0.0041105151 -0.008858203,
                              -0.0032904739 0.0032904739 -0.008858203,
                              -0.0041105151 0.0022063251 -0.0088582626,
                              -0.0045101638 0.001257419 -0.0088582626,
                              -0.0046373 0.00055252103 -0.0088582626,
                              -0.0046533942 0 -0.008858203,
                              -0.0046373 -0.00055252202 -0.008858203,
                              -0.0045101638 -0.001257419 -0.008858203,
                              -0.0041105151 -0.0022063251 -0.008858203,
                              -0.0043184748 -0.0043184748 -0.007931768,
                              -0.0028955929 -0.0053947559 -0.007931768,
                              -0.001650273 -0.0059192181 -0.007931768,
                              -0.00072513899 -0.006086051 -0.007931768,
                              0 -0.0061072698 -0.007931768,
                              0.00072513998 -0.006086051 -0.007931768,
                              0.001650273 -0.0059192181 -0.007931768,
                              0.0028955929 -0.0053947559 -0.007931768,
                              0.0043184748 -0.0043184748 -0.007931768,
                              0.0053947559 -0.0028955929 -0.007931768,
                              0.0059192181 -0.001650273 -0.007931768,
                              0.006086051 -0.00072513899 -0.007931768,
                              0.0061072698 0 -0.007931768,
                              0.006086051 0.00072513998 -0.007931768,
                              0.0059192181 0.001650273 -0.007931768,
                              0.0053947559 0.0028955929 -0.007931768,
                              0.0043184748 0.0043184748 -0.007931768,
                              0.0028955929 0.0053947559 -0.007931768,
                              0.001650273 0.0059192181 -0.007931768,
                              0.000725138 0.006086051 -0.007931768,
                              0 0.0061072698 -0.007931768,
                              -0.00072514103 0.006086051 -0.007931768,
                              -0.001650273 0.0059192181 -0.007931768,
                              -0.0028955929 0.0053947559 -0.007931768,
                              -0.0043184748 0.0043184748 -0.007931768,
                              -0.0053947559 0.0028955929 -0.007931768,
                              -0.0059192181 0.001650273 -0.007931768,
                              -0.006086051 0.00072513899 -0.007931768,
                              -0.0061072698 0 -0.007931768,
                              -0.006086051 -0.00072513998 -0.007931768,
                              -0.0059192181 -0.001650273 -0.007931768,
                              -0.0053947559 -0.0028955929 -0.007931768,
                              -0.0052280421 -0.0052280421 -0.006756186,
                              -0.0035054679 -0.0065310001 -0.006756186,
                              -0.0019978881 -0.007165968 -0.0067561259,
                              -0.000877871 -0.007367908 -0.006756186,
                              0 -0.0073935981 -0.006756186,
                              0.00087787199 -0.007367908 -0.006756186,
                              0.0019978881 -0.007165968 -0.006756186,
                              0.0035054679 -0.0065310001 -0.006756186,
                              0.0052280421 -0.0052280421 -0.006756186,
                              0.0065310588 -0.0035054679 -0.006756186,
                              0.007165968 -0.0019978881 -0.0067561259,
                              0.007367908 -0.00087787001 -0.006756186,
                              0.0073935981 0 -0.006756186,
                              0.007367908 0.00087787199 -0.006756186,
                              0.007165968 0.0019978881 -0.006756186,
                              0.0065310001 0.0035054679 -0.006756186,
                              0.0052280421 0.0052280421 -0.006756186,
                              0.0035054679 0.0065310588 -0.006756186,
                              0.0019978881 0.007165968 -0.0067561259,
                              0.00087787001 0.007367908 -0.006756186,
                              0 0.0073935981 -0.006756186,
                              -0.00087787298 0.007367908 -0.006756186,
                              -0.0019978881 0.007165968 -0.006756186,
                              -0.0035054679 0.0065310001 -0.006756186,
                              -0.0052280421 0.0052280421 -0.006756186,
                              -0.0065310588 0.0035054679 -0.006756186,
                              -0.007165968 0.0019978881 -0.0067561259,
                              -0.007367908 0.000877871 -0.006756186,
                              -0.0073935981 0 -0.006756186,
                              -0.007367908 -0.000877871 -0.006756186,
                              -0.007165968 -0.0019978881 -0.006756186,
                              -0.0065310588 -0.0035054679 -0.006756186,
                              -0.0059768548 -0.0059768548 -0.0053815241,
                              -0.004007577 -0.007466435 -0.0053815241,
                              -0.0022840491 -0.0081923604 -0.0053815241,
                              -0.0010035631 -0.0084232092 -0.0053815241,
                              0 -0.0084525337 -0.0053815241,
                              0.0010035631 -0.0084232092 -0.0053815241,
                              0.0022840491 -0.0081923604 -0.0053815241,
                              0.004007577 -0.007466435 -0.0053815241,
                              0.0059768548 -0.0059768548 -0.0053815241,
                              0.007466435 -0.004007577 -0.0053815241,
                              0.0081923604 -0.0022840491 -0.0053815241,
                              0.0084232092 -0.0010035631 -0.0053815241,
                              0.0084525337 0 -0.0053815241,
                              0.0084232092 0.0010035631 -0.0053815241,
                              0.0081923604 0.0022840491 -0.0053815241,
                              0.007466435 0.004007577 -0.0053815241,
                              0.0059768548 0.0059768548 -0.0053815241,
                              0.004007577 0.007466435 -0.0053815241,
                              0.0022840491 0.0081923604 -0.0053815241,
                              0.0010035631 0.0084232092 -0.0053815241,
                              0 0.0084525337 -0.0053815241,
                              -0.0010035631 0.0084232092 -0.0053815241,
                              -0.0022840491 0.0081923604 -0.0053815241,
                              -0.004007577 0.007466435 -0.0053815241,
                              -0.0059768548 0.0059768548 -0.0053815241,
                              -0.007466435 0.004007577 -0.0053815241,
                              -0.0081923604 0.0022840491 -0.0053815241,
                              -0.0084232092 0.0010035631 -0.0053815241,
                              -0.0084525337 0 -0.0053815241,
                              -0.0084232092 -0.0010035631 -0.0053815241,
                              -0.0081923604 -0.0022840491 -0.0053815241,
                              -0.007466435 -0.004007577 -0.0053815241,
                              -0.0065372582 -0.0065372582 -0.003874897,
                              -0.0043833251 -0.0081665507 -0.003874897,
                              -0.002498209 -0.0089604855 -0.003874897,
                              -0.001097679 -0.0092130303 -0.003874897,
                              0 -0.0092450967 -0.003874897,
                              0.001097679 -0.0092130303 -0.003874897,
                              0.002498209 -0.0089604855 -0.003874897,
                              0.0043833251 -0.0081665507 -0.003874897,
                              0.0065372582 -0.0065372582 -0.003874897,
                              0.0081665507 -0.0043833251 -0.003874897,
                              0.0089604855 -0.002498209 -0.003874897,
                              0.0092130303 -0.001097679 -0.003874897,
                              0.0092450967 0 -0.003874897,
                              0.0092130303 0.001097679 -0.003874897,
                              0.0089604855 0.002498209 -0.003874897,
                              0.0081665507 0.0043833251 -0.003874897,
                              0.0065372582 0.0065372582 -0.003874897,
                              0.0043833251 0.0081665507 -0.003874897,
                              0.002498209 0.0089604855 -0.003874897,
                              0.001097679 0.0092130303 -0.003874897,
                              0 0.0092450967 -0.003874897,
                              -0.001097679 0.0092130303 -0.003874897,
                              -0.002498209 0.0089604855 -0.003874897,
                              -0.0043833251 0.0081665507 -0.003874897,
                              -0.0065372582 0.0065372582 -0.003874897,
                              -0.0081665507 0.0043833251 -0.003874897,
                              -0.0089604855 0.002498209 -0.003874897,
                              -0.0092130303 0.001097679 -0.003874897,
                              -0.0092450967 0 -0.003874897,
                              -0.0092130303 -0.001097679 -0.003874897,
                              -0.0089604855 -0.002498209 -0.003874897,
                              -0.0081665507 -0.0043833251 -0.003874897,
                              -0.0068995352 -0.0068995352 -0.0023095601,
                              -0.0046262741 -0.0086191287 -0.0023095601,
                              -0.002636611 -0.0094571114 -0.0023095601,
                              -0.001158535 -0.0097236028 -0.0023095601,
                              0 -0.0097574592 -0.0023095601,
                              0.001158535 -0.0097236028 -0.0023095601,
                              0.002636611 -0.0094570508 -0.0023095601,
                              0.0046262741 -0.0086191287 -0.0023095601,
                              0.0068995352 -0.0068995352 -0.0023095601,
                              0.0086191287 -0.0046262741 -0.0023095601,
                              0.0094571114 -0.002636611 -0.0023095601,
                              0.0097236028 -0.001158535 -0.0023095601,
                              0.0097574592 0 -0.0023095601,
                              0.0097236028 0.001158535 -0.0023095601,
                              0.0094570508 0.002636611 -0.0023095601,
                              0.0086191287 0.0046262741 -0.0023095601,
                              0.0068995352 0.0068995352 -0.0023095601,
                              0.0046262741 0.0086191287 -0.0023095601,
                              0.002636611 0.0094571114 -0.0023095601,
                              0.001158535 0.0097236028 -0.0023095601,
                              0 0.0097574592 -0.0023095601,
                              -0.001158535 0.0097236028 -0.0023095601,
                              -0.002636611 0.0094570508 -0.0023095601,
                              -0.0046262741 0.0086191287 -0.0023095601,
                              -0.0068995352 0.0068995352 -0.0023095601,
                              -0.0086191287 0.0046262741 -0.0023095601,
                              -0.0094571114 0.002636611 -0.0023095601,
                              -0.0097236028 0.001158535 -0.0023095601,
                              -0.0097574592 0 -0.0023095601,
                              -0.0097236028 -0.001158535 -0.0023095601,
                              -0.0094571114 -0.002636611 -0.0023095601,
                              -0.0086191287 -0.0046262741 -0.0023095601,
                              -0.0070710182 -0.0070710182 -0.00075489702,
                              -0.004741251 -0.0088333478 -0.00075489702,
                              -0.0027021761 -0.0096921315 -0.00075489702,
                              -0.0011873239 -0.0099652996 -0.00075489702,
                              0 -0.0099999905 -0.00075489702,
                              0.0011873239 -0.0099652996 -0.00075489702,
                              0.0027021761 -0.0096921315 -0.00075489702,
                              0.004741251 -0.0088333478 -0.00075489702,
                              0.0070710182 -0.0070710182 -0.00075489702,
                              0.0088333478 -0.004741251 -0.00075489702,
                              0.0096921315 -0.0027021761 -0.00075489702,
                              0.0099652996 -0.0011873239 -0.00075489702,
                              0.0099999905 0 -0.00075489702,
                              0.0099652996 0.0011873239 -0.00075489702,
                              0.0096921315 0.0027021761 -0.00075489702,
                              0.0088333478 0.004741251 -0.00075489702,
                              0.0070710182 0.0070710182 -0.00075489702,
                              0.004741251 0.0088333478 -0.00075489702,
                              0.0027021761 0.0096921315 -0.00075489702,
                              0.0011873239 0.0099652996 -0.00075489702,
                              0 0.0099999905 -0.00075489702,
                              -0.0011873239 0.0099652996 -0.00075489702,
                              -0.0027021761 0.0096921315 -0.00075489702,
                              -0.004741251 0.0088333478 -0.00075489702,
                              -0.0070710182 0.0070710182 -0.00075489702,
                              -0.0088333478 0.004741251 -0.00075489702,
                              -0.0096921315 0.0027021761 -0.00075489702,
                              -0.0099652996 0.0011873239 -0.00075489702,
                              -0.0099999905 0 -0.00075489702,
                              -0.0099652996 -0.0011873239 -0.00075489702,
                              -0.0096921315 -0.0027021761 -0.00075489702,
                              -0.0088333478 -0.004741251 -0.00075489702,
                              -0.0070710182 -0.0070710182 0.000754899,
                              -0.004741251 -0.0088333478 0.00075489801,
                              -0.0027021761 -0.0096921315 0.000754899,
                              -0.0011873239 -0.0099652996 0.000754899,
                              0 -0.0099999905 0.000754899,
                              0.0011873239 -0.0099652996 0.00075489801,
                              0.0027021761 -0.0096921315 0.000754899,
                              0.004741251 -0.0088333478 0.00075489801,
                              0.0070710182 -0.0070710182 0.000754899,
                              0.0088333478 -0.004741251 0.000754899,
                              0.0096921315 -0.0027021761 0.000754899,
                              0.0099652996 -0.0011873239 0.000754899,
                              0.0099999905 0 0.000754899,
                              0.0099652996 0.0011873239 0.00075489801,
                              0.0096921315 0.0027021761 0.000754899,
                              0.0088333478 0.004741251 0.00075489801,
                              0.0070710182 0.0070710182 0.000754899,
                              0.004741251 0.0088333478 0.000754899,
                              0.0027021761 0.0096921315 0.000754899,
                              0.0011873239 0.0099652996 0.000754899,
                              0 0.0099999905 0.000754899,
                              -0.0011873239 0.0099652996 0.00075489801,
                              -0.0027021761 0.0096921315 0.000754899,
                              -0.004741251 0.0088333478 0.00075489801,
                              -0.0070710182 0.0070710182 0.000754899,
                              -0.0088333478 0.004741251 0.000754899,
                              -0.0096921315 0.0027021761 0.000754899,
                              -0.0099652996 0.0011873239 0.000754899,
                              -0.0099999905 0 0.000754899,
                              -0.0099652996 -0.0011873239 0.00075489801,
                              -0.0096921315 -0.0027021761 0.000754899,
                              -0.0088333478 -0.004741251 0.00075489801,
                              -0.0068995352 -0.0068995352 0.0023095601,
                              -0.0046262741 -0.0086191287 0.0023095601,
                              -0.002636611 -0.0094571114 0.0023095601,
                              -0.001158535 -0.0097236028 0.0023095601,
                              0 -0.0097574592 0.0023095601,
                              0.001158535 -0.0097236028 0.0023095601,
                              0.002636611 -0.0094570508 0.0023095601,
                              0.0046262741 -0.0086191287 0.0023095601,
                              0.0068995352 -0.0068995352 0.0023095601,
                              0.0086191287 -0.0046262741 0.0023095601,
                              0.0094571114 -0.002636611 0.0023095601,
                              0.0097236028 -0.001158535 0.0023095601,
                              0.0097574592 0 0.0023095601,
                              0.0097236028 0.001158535 0.0023095601,
                              0.0094570508 0.002636611 0.0023095601,
                              0.0086191287 0.0046262741 0.0023095601,
                              0.0068995352 0.0068995352 0.0023095601,
                              0.0046262741 0.0086191287 0.0023095601,
                              0.002636611 0.0094571114 0.0023095601,
                              0.001158535 0.0097236028 0.0023095601,
                              0 0.0097574592 0.0023095601,
                              -0.001158535 0.0097236028 0.0023095601,
                              -0.002636611 0.0094570508 0.0023095601,
                              -0.0046262741 0.0086191287 0.0023095601,
                              -0.0068995352 0.0068995352 0.0023095601,
                              -0.0086191287 0.0046262741 0.0023095601,
                              -0.0094571114 0.002636611 0.0023095601,
                              -0.0097236028 0.001158535 0.0023095601,
                              -0.0097574592 0 0.0023095601,
                              -0.0097236028 -0.001158535 0.0023095601,
                              -0.0094571114 -0.002636611 0.0023095601,
                              -0.0086191287 -0.0046262741 0.0023095601,
                              -0.0065372582 -0.0065372582 0.003874897,
                              -0.0043833251 -0.0081665507 0.003874897,
                              -0.002498209 -0.0089604855 0.003874897,
                              -0.001097679 -0.0092130303 0.003874897,
                              0 -0.0092450967 0.003874897,
                              0.001097679 -0.0092130303 0.003874897,
                              0.002498209 -0.0089604855 0.003874897,
                              0.0043833251 -0.0081665507 0.003874897,
                              0.0065372582 -0.0065372582 0.003874897,
                              0.0081665507 -0.0043833251 0.003874897,
                              0.0089604855 -0.002498209 0.003874897,
                              0.0092130303 -0.001097679 0.003874897,
                              0.0092450967 0 0.003874897,
                              0.0092130303 0.001097679 0.003874897,
                              0.0089604855 0.002498209 0.003874897,
                              0.0081665507 0.0043833251 0.003874897,
                              0.0065372582 0.0065372582 0.003874897,
                              0.0043833251 0.0081665507 0.003874897,
                              0.002498209 0.0089604855 0.003874897,
                              0.001097679 0.0092130303 0.003874897,
                              0 0.0092450967 0.003874897,
                              -0.001097679 0.0092130303 0.003874897,
                              -0.002498209 0.0089604855 0.003874897,
                              -0.0043833251 0.0081665507 0.003874897,
                              -0.0065372582 0.0065372582 0.003874897,
                              -0.0081665507 0.0043833251 0.003874897,
                              -0.0089604855 0.002498209 0.003874897,
                              -0.0092130303 0.001097679 0.003874897,
                              -0.0092450967 0 0.003874897,
                              -0.0092130303 -0.001097679 0.003874897,
                              -0.0089604855 -0.002498209 0.003874897,
                              -0.0081665507 -0.0043833251 0.003874897,
                              -0.0059768548 -0.0059768548 0.0053815241,
                              -0.004007577 -0.007466435 0.0053815241,
                              -0.0022840491 -0.0081923604 0.0053815241,
                              -0.0010035631 -0.0084232092 0.0053815241,
                              0 -0.0084525337 0.0053815241,
                              0.0010035631 -0.0084232092 0.0053815241,
                              0.0022840491 -0.0081923604 0.0053815241,
                              0.004007577 -0.007466435 0.0053815241,
                              0.0059768548 -0.0059768548 0.0053815241,
                              0.007466435 -0.004007577 0.0053815241,
                              0.0081923604 -0.0022840491 0.0053815241,
                              0.0084232092 -0.0010035631 0.0053815241,
                              0.0084525337 0 0.0053815241,
                              0.0084232092 0.0010035631 0.0053815241,
                              0.0081923604 0.0022840491 0.0053815241,
                              0.007466435 0.004007577 0.0053815241,
                              0.0059768548 0.0059768548 0.0053815241,
                              0.004007577 0.007466435 0.0053815241,
                              0.0022840491 0.0081923604 0.0053815241,
                              0.0010035631 0.0084232092 0.0053815241,
                              0 0.0084525337 0.0053815241,
                              -0.0010035631 0.0084232092 0.0053815241,
                              -0.0022840491 0.0081923604 0.0053815241,
                              -0.004007577 0.007466435 0.0053815241,
                              -0.0059768548 0.0059768548 0.0053815241,
                              -0.007466435 0.004007577 0.0053815241,
                              -0.0081923604 0.0022840491 0.0053815241,
                              -0.0084232092 0.0010035631 0.0053815241,
                              -0.0084525337 0 0.0053815241,
                              -0.0084232092 -0.0010035631 0.0053815241,
                              -0.0081923604 -0.0022840491 0.0053815241,
                              -0.007466435 -0.004007577 0.0053815241,
                              -0.0052280421 -0.0052280421 0.0067561259,
                              -0.0035054679 -0.0065310588 0.0067561259,
                              -0.0019978881 -0.007165968 0.0067561259,
                              -0.000877871 -0.007367908 0.0067561259,
                              0 -0.0073935981 0.006756186,
                              0.00087787199 -0.007367908 0.0067561259,
                              0.0019978881 -0.007165968 0.006756186,
                              0.0035054679 -0.0065310588 0.0067561259,
                              0.0052280421 -0.0052280421 0.006756186,
                              0.0065310588 -0.0035054679 0.0067561259,
                              0.007165968 -0.0019978881 0.0067561259,
                              0.007367908 -0.00087787001 0.0067561259,
                              0.0073935981 0 0.006756186,
                              0.007367908 0.00087787199 0.0067561259,
                              0.007165968 0.0019978881 0.006756186,
                              0.0065310001 0.0035054679 0.0067561259,
                              0.0052280421 0.0052280421 0.006756186,
                              0.0035054679 0.0065310588 0.0067561259,
                              0.0019978881 0.007165968 0.0067561259,
                              0.00087787001 0.007367908 0.0067561259,
                              0 0.0073935981 0.006756186,
                              -0.00087787298 0.007367908 0.0067561259,
                              -0.0019978881 0.007165968 0.006756186,
                              -0.0035054679 0.0065310001 0.0067561259,
                              -0.0052280421 0.0052280421 0.006756186,
                              -0.0065310588 0.0035054679 0.0067561259,
                              -0.007165968 0.0019978881 0.0067561259,
                              -0.007367908 0.000877871 0.0067561259,
                              -0.0073935981 0 0.006756186,
                              -0.007367908 -0.000877871 0.0067561259,
                              -0.007165968 -0.0019978881 0.0067561259,
                              -0.0065310588 -0.0035054679 0.0067561259,
                              -0.0043184748 -0.0043184748 0.007931768,
                              -0.0028955929 -0.0053947559 0.007931768,
                              -0.001650273 -0.0059192181 0.007931768,
                              -0.00072513899 -0.006086051 0.007931768,
                              0 -0.0061072698 0.007931768,
                              0.00072513998 -0.006086051 0.007931768,
                              0.001650273 -0.0059192181 0.007931768,
                              0.0028955929 -0.0053947559 0.007931768,
                              0.0043184748 -0.0043184748 0.007931768,
                              0.0053947559 -0.0028955929 0.007931768,
                              0.0059192181 -0.001650273 0.007931768,
                              0.006086051 -0.00072513899 0.007931768,
                              0.0061072698 0 0.007931768,
                              0.006086051 0.00072514103 0.007931768,
                              0.0059192181 0.001650273 0.007931768,
                              0.0053947559 0.0028955929 0.007931768,
                              0.0043184748 0.0043184748 0.007931768,
                              0.0028955929 0.0053947559 0.007931768,
                              0.001650273 0.0059192181 0.007931768,
                              0.00072513899 0.006086051 0.007931768,
                              0 0.0061072698 0.007931768,
                              -0.00072514103 0.006086051 0.007931768,
                              -0.001650273 0.0059192181 0.007931768,
                              -0.0028955929 0.0053947559 0.007931768,
                              -0.0043184748 0.0043184748 0.007931768,
                              -0.0053947559 0.0028955929 0.007931768,
                              -0.0059192181 0.001650273 0.007931768,
                              -0.006086051 0.00072513998 0.007931768,
                              -0.0061072698 0 0.007931768,
                              -0.006086051 -0.00072513998 0.007931768,
                              -0.0059192181 -0.001650273 0.007931768,
                              -0.0053947559 -0.0028955929 0.007931768,
                              -0.0032904739 -0.0032904739 0.008858203,
                              -0.0022063251 -0.0041105738 0.008858203,
                              -0.001257419 -0.0045101638 0.008858203,
                              -0.00055252202 -0.0046373 0.008858203,
                              0 -0.0046534529 0.008858203,
                              0.00055252202 -0.0046373 0.008858203,
                              0.001257419 -0.0045101638 0.008858203,
                              0.0022063251 -0.0041105738 0.008858203,
                              0.0032904739 -0.0032904739 0.008858203,
                              0.0041105738 -0.0022063251 0.008858203,
                              0.0045101638 -0.001257419 0.008858203,
                              0.0046373 -0.00055252202 0.008858203,
                              0.0046534529 0 0.008858203,
                              0.0046373 0.00055252301 0.008858203,
                              0.0045101638 0.001257419 0.008858203,
                              0.0041105738 0.0022063251 0.008858203,
                              0.0032904739 0.0032904739 0.008858203,
                              0.0022063251 0.0041105738 0.008858203,
                              0.001257419 0.0045101638 0.008858203,
                              0.00055252103 0.0046373 0.008858203,
                              0 0.0046534529 0.008858203,
                              -0.00055252301 0.0046373 0.008858203,
                              -0.001257419 0.0045101638 0.008858203,
                              -0.0022063251 0.0041105738 0.008858203,
                              -0.0032904739 0.0032904739 0.008858203,
                              -0.0041105738 0.0022063251 0.008858203,
                              -0.0045101638 0.001257419 0.008858203,
                              -0.0046373 0.00055252202 0.008858203,
                              -0.0046534529 0 0.008858203,
                              -0.0046373 -0.00055252202 0.008858203,
                              -0.0045101638 -0.001257419 0.008858203,
                              -0.0041105738 -0.0022063251 0.008858203,
                              -0.002194762 -0.002194762 0.0095089674,
                              -0.001471638 -0.0027417541 0.0095089674,
                              -0.000838737 -0.003008306 0.0095089674,
                              -0.00036853799 -0.003093123 0.0095089674,
                              0 -0.003103852 0.0095089674,
                              0.00036853799 -0.003093123 0.0095089674,
                              0.000838737 -0.003008306 0.0095089674,
                              0.001471638 -0.0027417541 0.0095089674,
                              0.002194762 -0.002194762 0.0095089674,
                              0.0027417541 -0.001471638 0.0095089674,
                              0.003008306 -0.00083873601 0.0095089674,
                              0.003093123 -0.00036853799 0.0095089674,
                              0.003103852 0 0.0095089674,
                              0.003093123 0.00036853799 0.0095089674,
                              0.003008306 0.000838737 0.0095089674,
                              0.0027417541 0.001471638 0.0095089674,
                              0.002194762 0.002194762 0.0095089674,
                              0.001471638 0.0027417541 0.0095089674,
                              0.00083873601 0.003008306 0.0095089674,
                              0.000368537 0.003093123 0.0095089674,
                              0 0.003103852 0.0095089674,
                              -0.00036853901 0.003093123 0.0095089674,
                              -0.000838737 0.003008306 0.0095089674,
                              -0.001471638 0.0027417541 0.0095089674,
                              -0.002194762 0.002194762 0.0095089674,
                              -0.0027417541 0.001471638 0.0095089674,
                              -0.003008306 0.000838737 0.0095089674,
                              -0.003093123 0.00036853799 0.0095089674,
                              -0.003103852 0 0.0095089674,
                              -0.003093123 -0.00036853799 0.0095089674,
                              -0.003008306 -0.000838737 0.0095089674,
                              -0.0027417541 -0.001471638 0.0095089674,
                              -0.001082837 -0.001082837 0.0098826876,
                              -0.00072606502 -0.001352667 0.0098826876,
                              -0.00041380699 -0.001484215 0.0098826876,
                              -0.000181825 -0.001526057 0.0098826876,
                              0 -0.001531362 0.0098826876,
                              0.000181825 -0.001526057 0.0098826876,
                              0.00041380699 -0.001484215 0.0098826876,
                              0.00072606502 -0.001352667 0.0098826876,
                              0.001082837 -0.001082837 0.0098826876,
                              0.001352667 -0.00072606502 0.0098826876,
                              0.001484215 -0.00041380699 0.0098826876,
                              0.001526057 -0.000181825 0.0098826876,
                              0.001531362 0 0.0098826876,
                              0.001526057 0.000181825 0.0098826876,
                              0.001484215 0.00041380699 0.0098826876,
                              0.001352667 0.00072606502 0.0098826876,
                              0.001082837 0.001082837 0.0098826876,
                              0.00072606502 0.001352667 0.0098826876,
                              0.00041380699 0.001484215 0.0098826876,
                              0.000181825 0.001526057 0.0098826876,
                              0 0.001531362 0.0098826876,
                              -0.00018182601 0.001526057 0.0098826876,
                              -0.00041380699 0.001484215 0.0098826876,
                              -0.00072606601 0.001352667 0.0098826876,
                              -0.001082837 0.001082837 0.0098826876,
                              -0.001352667 0.00072606502 0.0098826876,
                              -0.001484215 0.00041380699 0.0098826876,
                              -0.001526057 0.000181825 0.0098826876,
                              -0.001531362 0 0.0098826876,
                              -0.001526057 -0.000181825 0.0098826876,
                              -0.001484215 -0.00041380699 0.0098826876,
                              -0.001352667 -0.00072606502 0.0098826876,
                              0 0 0.0099999905,
                              0 0 0.0099999905,
                              0 0 0.0099999905,
                              0 0 0.0099999905,
                              0 0 0.0099999905,
                              0 0 0.0099999905,
                              0 0 0.0099999905,
                              0 0 0.0099999905,
                              0 0 0.0099999905,
                              0 0 0.0099999905,
                              0 0 0.0099999905,
                              0 0 0.0099999905,
                              0 0 0.0099999905,
                              0 0 0.0099999905,
                              0 0 0.0099999905,
                              0 0 0.0099999905,
                              0 0 0.0099999905,
                              0 0 0.0099999905,
                              0 0 0.0099999905,
                              0 0 0.0099999905,
                              0 0 0.0099999905,
                              0 0 0.0099999905,
                              0 0 0.0099999905,
                              0 0 0.0099999905,
                              0 0 0.0099999905,
                              0 0 0.0099999905,
                              0 0 0.0099999905,
                              0 0 0.0099999905,
                              0 0 0.0099999905,
                              0 0 0.0099999905,
                              0 0 0.0099999905,
                              0 0 0.0099999905 ]

                        }
                        normal 
                        DEF _+1 Normal {
                          vector [  ]

                        }
                        coordIndex [ 32, 63, 31, -1, 1, 33, 32, -1,
                            2, 34, 33, -1, 35, 34, 2, -1,
                            36, 35, 3, -1, 5, 37, 36, -1,
                            6, 38, 37, -1, 39, 38, 6, -1,
                            40, 39, 7, -1, 9, 41, 40, -1,
                            10, 42, 41, -1, 43, 42, 10, -1,
                            44, 43, 11, -1, 13, 45, 44, -1,
                            14, 46, 45, -1, 47, 46, 14, -1,
                            48, 47, 15, -1, 17, 49, 48, -1,
                            18, 50, 49, -1, 51, 50, 18, -1,
                            52, 51, 19, -1, 21, 53, 52, -1,
                            22, 54, 53, -1, 55, 54, 22, -1,
                            56, 55, 23, -1, 25, 57, 56, -1,
                            26, 58, 57, -1, 59, 58, 26, -1,
                            60, 59, 27, -1, 29, 61, 60, -1,
                            30, 62, 61, -1, 63, 62, 30, -1,
                            64, 95, 63, -1, 33, 65, 64, -1,
                            34, 66, 65, -1, 67, 66, 34, -1,
                            68, 67, 35, -1, 37, 69, 68, -1,
                            38, 70, 69, -1, 71, 70, 38, -1,
                            72, 71, 39, -1, 41, 73, 72, -1,
                            42, 74, 73, -1, 75, 74, 42, -1,
                            76, 75, 43, -1, 45, 77, 76, -1,
                            46, 78, 77, -1, 79, 78, 46, -1,
                            80, 79, 47, -1, 49, 81, 80, -1,
                            50, 82, 81, -1, 83, 82, 50, -1,
                            84, 83, 51, -1, 53, 85, 84, -1,
                            54, 86, 85, -1, 87, 86, 54, -1,
                            88, 87, 55, -1, 57, 89, 88, -1,
                            58, 90, 89, -1, 91, 90, 58, -1,
                            92, 91, 59, -1, 61, 93, 92, -1,
                            62, 94, 93, -1, 95, 94, 62, -1,
                            96, 127, 95, -1, 65, 97, 96, -1,
                            66, 98, 97, -1, 99, 98, 66, -1,
                            100, 99, 67, -1, 69, 101, 100, -1,
                            70, 102, 101, -1, 103, 102, 70, -1,
                            104, 103, 71, -1, 73, 105, 104, -1,
                            74, 106, 105, -1, 107, 106, 74, -1,
                            108, 107, 75, -1, 77, 109, 108, -1,
                            78, 110, 109, -1, 111, 110, 78, -1,
                            112, 111, 79, -1, 81, 113, 112, -1,
                            82, 114, 113, -1, 115, 114, 82, -1,
                            116, 115, 83, -1, 85, 117, 116, -1,
                            86, 118, 117, -1, 119, 118, 86, -1,
                            120, 119, 87, -1, 89, 121, 120, -1,
                            90, 122, 121, -1, 123, 122, 90, -1,
                            124, 123, 91, -1, 93, 125, 124, -1,
                            94, 126, 125, -1, 127, 126, 94, -1,
                            128, 159, 127, -1, 97, 129, 128, -1,
                            98, 130, 129, -1, 131, 130, 98, -1,
                            132, 131, 99, -1, 101, 133, 132, -1,
                            102, 134, 133, -1, 135, 134, 102, -1,
                            136, 135, 103, -1, 105, 137, 136, -1,
                            106, 138, 137, -1, 139, 138, 106, -1,
                            140, 139, 107, -1, 109, 141, 140, -1,
                            110, 142, 141, -1, 143, 142, 110, -1,
                            144, 143, 111, -1, 113, 145, 144, -1,
                            114, 146, 145, -1, 147, 146, 114, -1,
                            148, 147, 115, -1, 117, 149, 148, -1,
                            118, 150, 149, -1, 151, 150, 118, -1,
                            152, 151, 119, -1, 121, 153, 152, -1,
                            122, 154, 153, -1, 155, 154, 122, -1,
                            156, 155, 123, -1, 125, 157, 156, -1,
                            126, 158, 157, -1, 159, 158, 126, -1,
                            160, 191, 159, -1, 129, 161, 160, -1,
                            130, 162, 161, -1, 163, 162, 130, -1,
                            164, 163, 131, -1, 133, 165, 164, -1,
                            134, 166, 165, -1, 167, 166, 134, -1,
                            168, 167, 135, -1, 137, 169, 168, -1,
                            138, 170, 169, -1, 171, 170, 138, -1,
                            172, 171, 139, -1, 141, 173, 172, -1,
                            142, 174, 173, -1, 175, 174, 142, -1,
                            176, 175, 143, -1, 145, 177, 176, -1,
                            146, 178, 177, -1, 179, 178, 146, -1,
                            180, 179, 147, -1, 149, 181, 180, -1,
                            150, 182, 181, -1, 183, 182, 150, -1,
                            184, 183, 151, -1, 153, 185, 184, -1,
                            154, 186, 185, -1, 187, 186, 154, -1,
                            188, 187, 155, -1, 157, 189, 188, -1,
                            158, 190, 189, -1, 191, 190, 158, -1,
                            192, 223, 191, -1, 161, 193, 192, -1,
                            162, 194, 193, -1, 195, 194, 162, -1,
                            196, 195, 163, -1, 165, 197, 196, -1,
                            166, 198, 197, -1, 199, 198, 166, -1,
                            200, 199, 167, -1, 169, 201, 200, -1,
                            170, 202, 201, -1, 203, 202, 170, -1,
                            204, 203, 171, -1, 173, 205, 204, -1,
                            174, 206, 205, -1, 207, 206, 174, -1,
                            208, 207, 175, -1, 177, 209, 208, -1,
                            178, 210, 209, -1, 211, 210, 178, -1,
                            212, 211, 179, -1, 181, 213, 212, -1,
                            182, 214, 213, -1, 215, 214, 182, -1,
                            216, 215, 183, -1, 185, 217, 216, -1,
                            186, 218, 217, -1, 219, 218, 186, -1,
                            220, 219, 187, -1, 189, 221, 220, -1,
                            190, 222, 221, -1, 223, 222, 190, -1,
                            224, 255, 223, -1, 193, 225, 224, -1,
                            194, 226, 225, -1, 227, 226, 194, -1,
                            228, 227, 195, -1, 197, 229, 228, -1,
                            198, 230, 229, -1, 231, 230, 198, -1,
                            232, 231, 199, -1, 201, 233, 232, -1,
                            202, 234, 233, -1, 235, 234, 202, -1,
                            236, 235, 203, -1, 205, 237, 236, -1,
                            206, 238, 237, -1, 239, 238, 206, -1,
                            240, 239, 207, -1, 209, 241, 240, -1,
                            210, 242, 241, -1, 243, 242, 210, -1,
                            244, 243, 211, -1, 213, 245, 244, -1,
                            214, 246, 245, -1, 247, 246, 214, -1,
                            248, 247, 215, -1, 217, 249, 248, -1,
                            218, 250, 249, -1, 251, 250, 218, -1,
                            252, 251, 219, -1, 221, 253, 252, -1,
                            222, 254, 253, -1, 255, 254, 222, -1,
                            256, 287, 255, -1, 225, 257, 256, -1,
                            226, 258, 257, -1, 259, 258, 226, -1,
                            260, 259, 227, -1, 229, 261, 260, -1,
                            230, 262, 261, -1, 263, 262, 230, -1,
                            264, 263, 231, -1, 233, 265, 264, -1,
                            234, 266, 265, -1, 267, 266, 234, -1,
                            268, 267, 235, -1, 237, 269, 268, -1,
                            238, 270, 269, -1, 271, 270, 238, -1,
                            272, 271, 239, -1, 241, 273, 272, -1,
                            242, 274, 273, -1, 275, 274, 242, -1,
                            276, 275, 243, -1, 245, 277, 276, -1,
                            246, 278, 277, -1, 279, 278, 246, -1,
                            280, 279, 247, -1, 249, 281, 280, -1,
                            250, 282, 281, -1, 283, 282, 250, -1,
                            284, 283, 251, -1, 253, 285, 284, -1,
                            254, 286, 285, -1, 287, 286, 254, -1,
                            288, 319, 287, -1, 257, 289, 288, -1,
                            258, 290, 289, -1, 295, 294, 262, -1,
                            296, 295, 263, -1, 265, 297, 296, -1,
                            266, 298, 297, -1, 299, 298, 266, -1,
                            300, 299, 267, -1, 269, 301, 300, -1,
                            270, 302, 301, -1, 303, 302, 270, -1,
                            304, 303, 271, -1, 273, 305, 304, -1,
                            274, 306, 305, -1, 307, 306, 274, -1,
                            312, 311, 279, -1, 281, 313, 312, -1,
                            282, 314, 313, -1, 315, 314, 282, -1,
                            316, 315, 283, -1, 285, 317, 316, -1,
                            286, 318, 317, -1, 319, 318, 286, -1,
                            288, 320, 351, -1, 321, 320, 288, -1,
                            322, 321, 289, -1, 295, 327, 326, -1,
                            328, 327, 295, -1, 329, 328, 296, -1,
                            330, 329, 297, -1, 299, 331, 330, -1,
                            300, 332, 331, -1, 301, 333, 332, -1,
                            334, 333, 301, -1, 335, 334, 302, -1,
                            304, 336, 335, -1, 305, 337, 336, -1,
                            306, 338, 337, -1, 307, 339, 338, -1,
                            312, 344, 343, -1, 345, 344, 312, -1,
                            346, 345, 313, -1, 315, 347, 346, -1,
                            316, 348, 347, -1, 349, 348, 316, -1,
                            318, 350, 349, -1, 319, 351, 350, -1,
                            320, 352, 383, -1, 353, 352, 320, -1,
                            354, 353, 321, -1, 327, 359, 358, -1,
                            328, 360, 359, -1, 361, 360, 328, -1,
                            362, 361, 329, -1, 331, 363, 362, -1,
                            332, 364, 363, -1, 365, 364, 332, -1,
                            366, 365, 333, -1, 335, 367, 366, -1,
                            336, 368, 367, -1, 369, 368, 336, -1,
                            370, 369, 337, -1, 339, 371, 370, -1,
                            344, 376, 375, -1, 377, 376, 344, -1,
                            378, 377, 345, -1, 347, 379, 378, -1,
                            348, 380, 379, -1, 381, 380, 348, -1,
                            382, 381, 349, -1, 351, 383, 382, -1,
                            352, 384, 415, -1, 385, 384, 352, -1,
                            386, 385, 353, -1, 355, 387, 386, -1,
                            356, 388, 387, -1, 389, 388, 356, -1,
                            390, 389, 357, -1, 359, 391, 390, -1,
                            360, 392, 391, -1, 393, 392, 360, -1,
                            394, 393, 361, -1, 363, 395, 394, -1,
                            364, 396, 395, -1, 397, 396, 364, -1,
                            398, 397, 365, -1, 367, 399, 398, -1,
                            368, 400, 399, -1, 401, 400, 368, -1,
                            402, 401, 369, -1, 371, 403, 402, -1,
                            372, 404, 403, -1, 405, 404, 372, -1,
                            406, 405, 373, -1, 375, 407, 406, -1,
                            376, 408, 407, -1, 409, 408, 376, -1,
                            410, 409, 377, -1, 379, 411, 410, -1,
                            380, 412, 411, -1, 413, 412, 380, -1,
                            414, 413, 381, -1, 383, 415, 414, -1,
                            384, 416, 447, -1, 417, 416, 384, -1,
                            418, 417, 385, -1, 387, 419, 418, -1,
                            388, 420, 419, -1, 421, 420, 388, -1,
                            422, 421, 389, -1, 391, 423, 422, -1,
                            392, 424, 423, -1, 425, 424, 392, -1,
                            426, 425, 393, -1, 395, 427, 426, -1,
                            396, 428, 427, -1, 429, 428, 396, -1,
                            430, 429, 397, -1, 399, 431, 430, -1,
                            400, 432, 431, -1, 433, 432, 400, -1,
                            434, 433, 401, -1, 403, 435, 434, -1,
                            404, 436, 435, -1, 437, 436, 404, -1,
                            438, 437, 405, -1, 407, 439, 438, -1,
                            408, 440, 439, -1, 441, 440, 408, -1,
                            442, 441, 409, -1, 411, 443, 442, -1,
                            412, 444, 443, -1, 445, 444, 412, -1,
                            446, 445, 413, -1, 415, 447, 446, -1,
                            416, 448, 479, -1, 449, 448, 416, -1,
                            450, 449, 417, -1, 419, 451, 450, -1,
                            420, 452, 451, -1, 453, 452, 420, -1,
                            454, 453, 421, -1, 423, 455, 454, -1,
                            424, 456, 455, -1, 457, 456, 424, -1,
                            458, 457, 425, -1, 427, 459, 458, -1,
                            428, 460, 459, -1, 461, 460, 428, -1,
                            462, 461, 429, -1, 431, 463, 462, -1,
                            432, 464, 463, -1, 465, 464, 432, -1,
                            466, 465, 433, -1, 435, 467, 466, -1,
                            436, 468, 467, -1, 469, 468, 436, -1,
                            470, 469, 437, -1, 439, 471, 470, -1,
                            440, 472, 471, -1, 473, 472, 440, -1,
                            474, 473, 441, -1, 443, 475, 474, -1,
                            444, 476, 475, -1, 477, 476, 444, -1,
                            478, 477, 445, -1, 447, 479, 478, -1,
                            448, 480, 511, -1, 481, 480, 448, -1,
                            482, 481, 449, -1, 451, 483, 482, -1,
                            452, 484, 483, -1, 485, 484, 452, -1,
                            486, 485, 453, -1, 455, 487, 486, -1,
                            456, 488, 487, -1, 489, 488, 456, -1,
                            490, 489, 457, -1, 459, 491, 490, -1,
                            460, 492, 491, -1, 493, 492, 460, -1,
                            494, 493, 461, -1, 463, 495, 494, -1,
                            464, 496, 495, -1, 497, 496, 464, -1,
                            498, 497, 465, -1, 467, 499, 498, -1,
                            468, 500, 499, -1, 501, 500, 468, -1,
                            502, 501, 469, -1, 471, 503, 502, -1,
                            472, 504, 503, -1, 505, 504, 472, -1,
                            506, 505, 473, -1, 475, 507, 506, -1,
                            476, 508, 507, -1, 509, 508, 476, -1,
                            510, 509, 477, -1, 479, 511, 510, -1,
                            480, 512, 543, -1, 513, 512, 480, -1,
                            514, 513, 481, -1, 483, 515, 514, -1,
                            484, 516, 515, -1, 517, 516, 484, -1,
                            518, 517, 485, -1, 487, 519, 518, -1,
                            488, 520, 519, -1, 521, 520, 488, -1,
                            522, 521, 489, -1, 491, 523, 522, -1,
                            492, 524, 523, -1, 525, 524, 492, -1,
                            526, 525, 493, -1, 495, 527, 526, -1,
                            496, 528, 527, -1, 529, 528, 496, -1,
                            530, 529, 497, -1, 499, 531, 530, -1,
                            500, 532, 531, -1, 533, 532, 500, -1,
                            534, 533, 501, -1, 503, 535, 534, -1,
                            504, 536, 535, -1, 537, 536, 504, -1,
                            538, 537, 505, -1, 507, 539, 538, -1,
                            508, 540, 539, -1, 541, 540, 508, -1,
                            542, 541, 509, -1, 511, 543, 542, -1,
                            512, 544, 575, -1, 545, 544, 512, -1,
                            546, 545, 513, -1, 515, 547, 546, -1,
                            516, 548, 547, -1, 549, 548, 516, -1,
                            550, 549, 517, -1, 519, 551, 550, -1,
                            520, 552, 551, -1, 553, 552, 520, -1,
                            554, 553, 521, -1, 523, 555, 554, -1,
                            524, 556, 555, -1, 557, 556, 524, -1,
                            558, 557, 525, -1, 527, 559, 558, -1,
                            528, 560, 559, -1, 561, 560, 528, -1,
                            562, 561, 529, -1, 531, 563, 562, -1,
                            532, 564, 563, -1, 565, 564, 532, -1,
                            566, 565, 533, -1, 535, 567, 566, -1,
                            536, 568, 567, -1, 569, 568, 536, -1,
                            570, 569, 537, -1, 539, 571, 570, -1,
                            540, 572, 571, -1, 573, 572, 540, -1,
                            574, 573, 541, -1, 543, 575, 574, -1,
                            544, 576, 607, -1, 577, 576, 544, -1,
                            578, 577, 545, -1, 547, 579, 578, -1,
                            548, 580, 579, -1, 581, 580, 548, -1,
                            582, 581, 549, -1, 551, 583, 582, -1,
                            552, 584, 583, -1, 585, 584, 552, -1,
                            586, 585, 553, -1, 555, 587, 586, -1,
                            556, 588, 587, -1, 589, 588, 556, -1,
                            590, 589, 557, -1, 559, 591, 590, -1,
                            560, 592, 591, -1, 593, 592, 560, -1,
                            594, 593, 561, -1, 563, 595, 594, -1,
                            564, 596, 595, -1, 597, 596, 564, -1,
                            598, 597, 565, -1, 567, 599, 598, -1,
                            568, 600, 599, -1, 601, 600, 568, -1,
                            602, 601, 569, -1, 571, 603, 602, -1,
                            572, 604, 603, -1, 605, 604, 572, -1,
                            606, 605, 573, -1, 575, 607, 606, -1,
                            576, 608, 639, -1, 609, 608, 576, -1,
                            610, 609, 577, -1, 579, 611, 610, -1,
                            580, 612, 611, -1, 613, 612, 580, -1,
                            614, 613, 581, -1, 583, 615, 614, -1,
                            584, 616, 615, -1, 617, 616, 584, -1,
                            618, 617, 585, -1, 587, 619, 618, -1,
                            588, 620, 619, -1, 621, 620, 588, -1,
                            622, 621, 589, -1, 591, 623, 622, -1,
                            592, 624, 623, -1, 625, 624, 592, -1,
                            626, 625, 593, -1, 595, 627, 626, -1,
                            596, 628, 627, -1, 629, 628, 596, -1,
                            630, 629, 597, -1, 599, 631, 630, -1,
                            600, 632, 631, -1, 633, 632, 600, -1,
                            634, 633, 601, -1, 603, 635, 634, -1,
                            604, 636, 635, -1, 637, 636, 604, -1,
                            638, 637, 605, -1, 607, 639, 638, -1,
                            0, 32, 31, -1, 0, 1, 32, -1,
                            1, 2, 33, -1, 3, 35, 2, -1,
                            4, 36, 3, -1, 4, 5, 36, -1,
                            5, 6, 37, -1, 7, 39, 6, -1,
                            8, 40, 7, -1, 8, 9, 40, -1,
                            9, 10, 41, -1, 11, 43, 10, -1,
                            12, 44, 11, -1, 12, 13, 44, -1,
                            13, 14, 45, -1, 15, 47, 14, -1,
                            16, 48, 15, -1, 16, 17, 48, -1,
                            17, 18, 49, -1, 19, 51, 18, -1,
                            20, 52, 19, -1, 20, 21, 52, -1,
                            21, 22, 53, -1, 23, 55, 22, -1,
                            24, 56, 23, -1, 24, 25, 56, -1,
                            25, 26, 57, -1, 27, 59, 26, -1,
                            28, 60, 27, -1, 28, 29, 60, -1,
                            29, 30, 61, -1, 31, 63, 30, -1,
                            32, 64, 63, -1, 32, 33, 64, -1,
                            33, 34, 65, -1, 35, 67, 34, -1,
                            36, 68, 35, -1, 36, 37, 68, -1,
                            37, 38, 69, -1, 39, 71, 38, -1,
                            40, 72, 39, -1, 40, 41, 72, -1,
                            41, 42, 73, -1, 43, 75, 42, -1,
                            44, 76, 43, -1, 44, 45, 76, -1,
                            45, 46, 77, -1, 47, 79, 46, -1,
                            48, 80, 47, -1, 48, 49, 80, -1,
                            49, 50, 81, -1, 51, 83, 50, -1,
                            52, 84, 51, -1, 52, 53, 84, -1,
                            53, 54, 85, -1, 55, 87, 54, -1,
                            56, 88, 55, -1, 56, 57, 88, -1,
                            57, 58, 89, -1, 59, 91, 58, -1,
                            60, 92, 59, -1, 60, 61, 92, -1,
                            61, 62, 93, -1, 63, 95, 62, -1,
                            64, 96, 95, -1, 64, 65, 96, -1,
                            65, 66, 97, -1, 67, 99, 66, -1,
                            68, 100, 67, -1, 68, 69, 100, -1,
                            69, 70, 101, -1, 71, 103, 70, -1,
                            72, 104, 71, -1, 72, 73, 104, -1,
                            73, 74, 105, -1, 75, 107, 74, -1,
                            76, 108, 75, -1, 76, 77, 108, -1,
                            77, 78, 109, -1, 79, 111, 78, -1,
                            80, 112, 79, -1, 80, 81, 112, -1,
                            81, 82, 113, -1, 83, 115, 82, -1,
                            84, 116, 83, -1, 84, 85, 116, -1,
                            85, 86, 117, -1, 87, 119, 86, -1,
                            88, 120, 87, -1, 88, 89, 120, -1,
                            89, 90, 121, -1, 91, 123, 90, -1,
                            92, 124, 91, -1, 92, 93, 124, -1,
                            93, 94, 125, -1, 95, 127, 94, -1,
                            96, 128, 127, -1, 96, 97, 128, -1,
                            97, 98, 129, -1, 99, 131, 98, -1,
                            100, 132, 99, -1, 100, 101, 132, -1,
                            101, 102, 133, -1, 103, 135, 102, -1,
                            104, 136, 103, -1, 104, 105, 136, -1,
                            105, 106, 137, -1, 107, 139, 106, -1,
                            108, 140, 107, -1, 108, 109, 140, -1,
                            109, 110, 141, -1, 111, 143, 110, -1,
                            112, 144, 111, -1, 112, 113, 144, -1,
                            113, 114, 145, -1, 115, 147, 114, -1,
                            116, 148, 115, -1, 116, 117, 148, -1,
                            117, 118, 149, -1, 119, 151, 118, -1,
                            120, 152, 119, -1, 120, 121, 152, -1,
                            121, 122, 153, -1, 123, 155, 122, -1,
                            124, 156, 123, -1, 124, 125, 156, -1,
                            125, 126, 157, -1, 127, 159, 126, -1,
                            128, 160, 159, -1, 128, 129, 160, -1,
                            129, 130, 161, -1, 131, 163, 130, -1,
                            132, 164, 131, -1, 132, 133, 164, -1,
                            133, 134, 165, -1, 135, 167, 134, -1,
                            136, 168, 135, -1, 136, 137, 168, -1,
                            137, 138, 169, -1, 139, 171, 138, -1,
                            140, 172, 139, -1, 140, 141, 172, -1,
                            141, 142, 173, -1, 143, 175, 142, -1,
                            144, 176, 143, -1, 144, 145, 176, -1,
                            145, 146, 177, -1, 147, 179, 146, -1,
                            148, 180, 147, -1, 148, 149, 180, -1,
                            149, 150, 181, -1, 151, 183, 150, -1,
                            152, 184, 151, -1, 152, 153, 184, -1,
                            153, 154, 185, -1, 155, 187, 154, -1,
                            156, 188, 155, -1, 156, 157, 188, -1,
                            157, 158, 189, -1, 159, 191, 158, -1,
                            160, 192, 191, -1, 160, 161, 192, -1,
                            161, 162, 193, -1, 163, 195, 162, -1,
                            164, 196, 163, -1, 164, 165, 196, -1,
                            165, 166, 197, -1, 167, 199, 166, -1,
                            168, 200, 167, -1, 168, 169, 200, -1,
                            169, 170, 201, -1, 171, 203, 170, -1,
                            172, 204, 171, -1, 172, 173, 204, -1,
                            173, 174, 205, -1, 175, 207, 174, -1,
                            176, 208, 175, -1, 176, 177, 208, -1,
                            177, 178, 209, -1, 179, 211, 178, -1,
                            180, 212, 179, -1, 180, 181, 212, -1,
                            181, 182, 213, -1, 183, 215, 182, -1,
                            184, 216, 183, -1, 184, 185, 216, -1,
                            185, 186, 217, -1, 187, 219, 186, -1,
                            188, 220, 187, -1, 188, 189, 220, -1,
                            189, 190, 221, -1, 191, 223, 190, -1,
                            192, 224, 223, -1, 192, 193, 224, -1,
                            193, 194, 225, -1, 195, 227, 194, -1,
                            196, 228, 195, -1, 196, 197, 228, -1,
                            197, 198, 229, -1, 199, 231, 198, -1,
                            200, 232, 199, -1, 200, 201, 232, -1,
                            201, 202, 233, -1, 203, 235, 202, -1,
                            204, 236, 203, -1, 204, 205, 236, -1,
                            205, 206, 237, -1, 207, 239, 206, -1,
                            208, 240, 207, -1, 208, 209, 240, -1,
                            209, 210, 241, -1, 211, 243, 210, -1,
                            212, 244, 211, -1, 212, 213, 244, -1,
                            213, 214, 245, -1, 215, 247, 214, -1,
                            216, 248, 215, -1, 216, 217, 248, -1,
                            217, 218, 249, -1, 219, 251, 218, -1,
                            220, 252, 219, -1, 220, 221, 252, -1,
                            221, 222, 253, -1, 223, 255, 222, -1,
                            224, 256, 255, -1, 224, 225, 256, -1,
                            225, 226, 257, -1, 227, 259, 226, -1,
                            228, 260, 227, -1, 228, 229, 260, -1,
                            229, 230, 261, -1, 231, 263, 230, -1,
                            232, 264, 231, -1, 232, 233, 264, -1,
                            233, 234, 265, -1, 235, 267, 234, -1,
                            236, 268, 235, -1, 236, 237, 268, -1,
                            237, 238, 269, -1, 239, 271, 238, -1,
                            240, 272, 239, -1, 240, 241, 272, -1,
                            241, 242, 273, -1, 243, 275, 242, -1,
                            244, 276, 243, -1, 244, 245, 276, -1,
                            245, 246, 277, -1, 247, 279, 246, -1,
                            248, 280, 247, -1, 248, 249, 280, -1,
                            249, 250, 281, -1, 251, 283, 250, -1,
                            252, 284, 251, -1, 252, 253, 284, -1,
                            253, 254, 285, -1, 255, 287, 254, -1,
                            256, 288, 287, -1, 256, 257, 288, -1,
                            257, 258, 289, -1, 263, 295, 262, -1,
                            264, 296, 263, -1, 264, 265, 296, -1,
                            265, 266, 297, -1, 267, 299, 266, -1,
                            268, 300, 267, -1, 268, 269, 300, -1,
                            269, 270, 301, -1, 271, 303, 270, -1,
                            272, 304, 271, -1, 272, 273, 304, -1,
                            273, 274, 305, -1, 275, 307, 274, -1,
                            280, 312, 279, -1, 280, 281, 312, -1,
                            281, 282, 313, -1, 283, 315, 282, -1,
                            284, 316, 283, -1, 284, 285, 316, -1,
                            285, 286, 317, -1, 287, 319, 286, -1,
                            319, 288, 351, -1, 289, 321, 288, -1,
                            290, 322, 289, -1, 294, 295, 326, -1,
                            296, 328, 295, -1, 297, 329, 296, -1,
                            298, 330, 297, -1, 298, 299, 330, -1,
                            299, 300, 331, -1, 300, 301, 332, -1,
                            302, 334, 301, -1, 303, 335, 302, -1,
                            303, 304, 335, -1, 304, 305, 336, -1,
                            305, 306, 337, -1, 306, 307, 338, -1,
                            311, 312, 343, -1, 313, 345, 312, -1,
                            314, 346, 313, -1, 314, 315, 346, -1,
                            315, 316, 347, -1, 317, 349, 316, -1,
                            317, 318, 349, -1, 318, 319, 350, -1,
                            351, 320, 383, -1, 321, 353, 320, -1,
                            322, 354, 321, -1, 326, 327, 358, -1,
                            327, 328, 359, -1, 329, 361, 328, -1,
                            330, 362, 329, -1, 330, 331, 362, -1,
                            331, 332, 363, -1, 333, 365, 332, -1,
                            334, 366, 333, -1, 334, 335, 366, -1,
                            335, 336, 367, -1, 337, 369, 336, -1,
                            338, 370, 337, -1, 338, 339, 370, -1,
                            343, 344, 375, -1, 345, 377, 344, -1,
                            346, 378, 345, -1, 346, 347, 378, -1,
                            347, 348, 379, -1, 349, 381, 348, -1,
                            350, 382, 349, -1, 350, 351, 382, -1,
                            383, 352, 415, -1, 353, 385, 352, -1,
                            354, 386, 353, -1, 354, 355, 386, -1,
                            355, 356, 387, -1, 357, 389, 356, -1,
                            358, 390, 357, -1, 358, 359, 390, -1,
                            359, 360, 391, -1, 361, 393, 360, -1,
                            362, 394, 361, -1, 362, 363, 394, -1,
                            363, 364, 395, -1, 365, 397, 364, -1,
                            366, 398, 365, -1, 366, 367, 398, -1,
                            367, 368, 399, -1, 369, 401, 368, -1,
                            370, 402, 369, -1, 370, 371, 402, -1,
                            371, 372, 403, -1, 373, 405, 372, -1,
                            374, 406, 373, -1, 374, 375, 406, -1,
                            375, 376, 407, -1, 377, 409, 376, -1,
                            378, 410, 377, -1, 378, 379, 410, -1,
                            379, 380, 411, -1, 381, 413, 380, -1,
                            382, 414, 381, -1, 382, 383, 414, -1,
                            415, 384, 447, -1, 385, 417, 384, -1,
                            386, 418, 385, -1, 386, 387, 418, -1,
                            387, 388, 419, -1, 389, 421, 388, -1,
                            390, 422, 389, -1, 390, 391, 422, -1,
                            391, 392, 423, -1, 393, 425, 392, -1,
                            394, 426, 393, -1, 394, 395, 426, -1,
                            395, 396, 427, -1, 397, 429, 396, -1,
                            398, 430, 397, -1, 398, 399, 430, -1,
                            399, 400, 431, -1, 401, 433, 400, -1,
                            402, 434, 401, -1, 402, 403, 434, -1,
                            403, 404, 435, -1, 405, 437, 404, -1,
                            406, 438, 405, -1, 406, 407, 438, -1,
                            407, 408, 439, -1, 409, 441, 408, -1,
                            410, 442, 409, -1, 410, 411, 442, -1,
                            411, 412, 443, -1, 413, 445, 412, -1,
                            414, 446, 413, -1, 414, 415, 446, -1,
                            447, 416, 479, -1, 417, 449, 416, -1,
                            418, 450, 417, -1, 418, 419, 450, -1,
                            419, 420, 451, -1, 421, 453, 420, -1,
                            422, 454, 421, -1, 422, 423, 454, -1,
                            423, 424, 455, -1, 425, 457, 424, -1,
                            426, 458, 425, -1, 426, 427, 458, -1,
                            427, 428, 459, -1, 429, 461, 428, -1,
                            430, 462, 429, -1, 430, 431, 462, -1,
                            431, 432, 463, -1, 433, 465, 432, -1,
                            434, 466, 433, -1, 434, 435, 466, -1,
                            435, 436, 467, -1, 437, 469, 436, -1,
                            438, 470, 437, -1, 438, 439, 470, -1,
                            439, 440, 471, -1, 441, 473, 440, -1,
                            442, 474, 441, -1, 442, 443, 474, -1,
                            443, 444, 475, -1, 445, 477, 444, -1,
                            446, 478, 445, -1, 446, 447, 478, -1,
                            479, 448, 511, -1, 449, 481, 448, -1,
                            450, 482, 449, -1, 450, 451, 482, -1,
                            451, 452, 483, -1, 453, 485, 452, -1,
                            454, 486, 453, -1, 454, 455, 486, -1,
                            455, 456, 487, -1, 457, 489, 456, -1,
                            458, 490, 457, -1, 458, 459, 490, -1,
                            459, 460, 491, -1, 461, 493, 460, -1,
                            462, 494, 461, -1, 462, 463, 494, -1,
                            463, 464, 495, -1, 465, 497, 464, -1,
                            466, 498, 465, -1, 466, 467, 498, -1,
                            467, 468, 499, -1, 469, 501, 468, -1,
                            470, 502, 469, -1, 470, 471, 502, -1,
                            471, 472, 503, -1, 473, 505, 472, -1,
                            474, 506, 473, -1, 474, 475, 506, -1,
                            475, 476, 507, -1, 477, 509, 476, -1,
                            478, 510, 477, -1, 478, 479, 510, -1,
                            511, 480, 543, -1, 481, 513, 480, -1,
                            482, 514, 481, -1, 482, 483, 514, -1,
                            483, 484, 515, -1, 485, 517, 484, -1,
                            486, 518, 485, -1, 486, 487, 518, -1,
                            487, 488, 519, -1, 489, 521, 488, -1,
                            490, 522, 489, -1, 490, 491, 522, -1,
                            491, 492, 523, -1, 493, 525, 492, -1,
                            494, 526, 493, -1, 494, 495, 526, -1,
                            495, 496, 527, -1, 497, 529, 496, -1,
                            498, 530, 497, -1, 498, 499, 530, -1,
                            499, 500, 531, -1, 501, 533, 500, -1,
                            502, 534, 501, -1, 502, 503, 534, -1,
                            503, 504, 535, -1, 505, 537, 504, -1,
                            506, 538, 505, -1, 506, 507, 538, -1,
                            507, 508, 539, -1, 509, 541, 508, -1,
                            510, 542, 509, -1, 510, 511, 542, -1,
                            543, 512, 575, -1, 513, 545, 512, -1,
                            514, 546, 513, -1, 514, 515, 546, -1,
                            515, 516, 547, -1, 517, 549, 516, -1,
                            518, 550, 517, -1, 518, 519, 550, -1,
                            519, 520, 551, -1, 521, 553, 520, -1,
                            522, 554, 521, -1, 522, 523, 554, -1,
                            523, 524, 555, -1, 525, 557, 524, -1,
                            526, 558, 525, -1, 526, 527, 558, -1,
                            527, 528, 559, -1, 529, 561, 528, -1,
                            530, 562, 529, -1, 530, 531, 562, -1,
                            531, 532, 563, -1, 533, 565, 532, -1,
                            534, 566, 533, -1, 534, 535, 566, -1,
                            535, 536, 567, -1, 537, 569, 536, -1,
                            538, 570, 537, -1, 538, 539, 570, -1,
                            539, 540, 571, -1, 541, 573, 540, -1,
                            542, 574, 541, -1, 542, 543, 574, -1,
                            575, 544, 607, -1, 545, 577, 544, -1,
                            546, 578, 545, -1, 546, 547, 578, -1,
                            547, 548, 579, -1, 549, 581, 548, -1,
                            550, 582, 549, -1, 550, 551, 582, -1,
                            551, 552, 583, -1, 553, 585, 552, -1,
                            554, 586, 553, -1, 554, 555, 586, -1,
                            555, 556, 587, -1, 557, 589, 556, -1,
                            558, 590, 557, -1, 558, 559, 590, -1,
                            559, 560, 591, -1, 561, 593, 560, -1,
                            562, 594, 561, -1, 562, 563, 594, -1,
                            563, 564, 595, -1, 565, 597, 564, -1,
                            566, 598, 565, -1, 566, 567, 598, -1,
                            567, 568, 599, -1, 569, 601, 568, -1,
                            570, 602, 569, -1, 570, 571, 602, -1,
                            571, 572, 603, -1, 573, 605, 572, -1,
                            574, 606, 573, -1, 574, 575, 606, -1,
                            607, 576, 639, -1, 577, 609, 576, -1,
                            578, 610, 577, -1, 578, 579, 610, -1,
                            579, 580, 611, -1, 581, 613, 580, -1,
                            582, 614, 581, -1, 582, 583, 614, -1,
                            583, 584, 615, -1, 585, 617, 584, -1,
                            586, 618, 585, -1, 586, 587, 618, -1,
                            587, 588, 619, -1, 589, 621, 588, -1,
                            590, 622, 589, -1, 590, 591, 622, -1,
                            591, 592, 623, -1, 593, 625, 592, -1,
                            594, 626, 593, -1, 594, 595, 626, -1,
                            595, 596, 627, -1, 597, 629, 596, -1,
                            598, 630, 597, -1, 598, 599, 630, -1,
                            599, 600, 631, -1, 601, 633, 600, -1,
                            602, 634, 601, -1, 602, 603, 634, -1,
                            603, 604, 635, -1, 605, 637, 604, -1,
                            606, 638, 605, -1, 606, 607, 638 ]
                        ccw TRUE
                        solid FALSE
                        convex TRUE
                        creaseAngle 0

                      }

                    },
                      
                    Shape {
                      appearance 
                      Appearance {
                        material 
                        Material {
                          diffuseColor 0 0 0

                        }

                      }
                      geometry 
                      IndexedFaceSet {
                        coord 
                        USE _+0
                        normal 
                        USE _+1
                        coordIndex [ 291, 290, 258, -1, 292, 291, 259, -1,
                            261, 293, 292, -1, 262, 294, 293, -1,
                            308, 307, 275, -1, 277, 309, 308, -1,
                            278, 310, 309, -1, 311, 310, 278, -1,
                            323, 322, 290, -1, 324, 323, 291, -1,
                            325, 324, 292, -1, 294, 326, 325, -1,
                            340, 339, 307, -1, 309, 341, 340, -1,
                            310, 342, 341, -1, 311, 343, 342, -1,
                            323, 355, 354, -1, 324, 356, 355, -1,
                            357, 356, 324, -1, 358, 357, 325, -1,
                            340, 372, 371, -1, 373, 372, 340, -1,
                            374, 373, 341, -1, 343, 375, 374, -1,
                            259, 291, 258, -1, 260, 292, 259, -1,
                            260, 261, 292, -1, 261, 262, 293, -1,
                            276, 308, 275, -1, 276, 277, 308, -1,
                            277, 278, 309, -1, 279, 311, 278, -1,
                            291, 323, 290, -1, 292, 324, 291, -1,
                            293, 325, 292, -1, 293, 294, 325, -1,
                            308, 340, 307, -1, 308, 309, 340, -1,
                            309, 310, 341, -1, 310, 311, 342, -1,
                            322, 323, 354, -1, 323, 324, 355, -1,
                            325, 357, 324, -1, 326, 358, 325, -1,
                            339, 340, 371, -1, 341, 373, 340, -1,
                            342, 374, 341, -1, 342, 343, 374 ]
                        ccw TRUE
                        solid FALSE
                        convex TRUE
                        creaseAngle 0

                      }

                    } ]

                }

            }

        }

    }

}
